%YAML 1.1
%TAG !u! tag:unity3d.com,2011:
--- !u!114 &11400000
MonoBehaviour:
  m_ObjectHideFlags: 0
  m_CorrespondingSourceObject: {fileID: 0}
  m_PrefabInstance: {fileID: 0}
  m_PrefabAsset: {fileID: 0}
  m_GameObject: {fileID: 0}
  m_Enabled: 1
  m_EditorHideFlags: 0
  m_Script: {fileID: 11500000, guid: b7c406fca80383f4098eaa0e7268e001, type: 3}
  m_Name: NonAlertStateGuard
  m_EditorClassIdentifier: 
  _moveSpeed: 1
  _scaleDecreaseDistanceAlert: 1
  state: 1
